// Jest Snapshot v1, https://goo.gl/fbAQLP

exports[`Footer renders Footer snapshot 1`] = `
<DocumentFragment>
  <div
    class="footer"
  >
    <p>
      <b>
        netflix
      </b>
      roulette
    </p>
  </div>
</DocumentFragment>
`;
